Example • ezPurrr
…
From here, we want to be able to work with the data like normal, but it’s difficult when the data are in this list column format. This is where teh sample_*() functions come in.

sample_*()

sample_row()

The sample_row() function returns one random or one particular row (when an index argument is supplied) from the nested data as a list or a data frame. If returning a list (default), the first item of the list with be the data from the given row, while the remaining elements of the list will be the grouping variables from that row (i.e., the species and island for the corresponding row, in our previous example). If returning a data frame (with type = df argument), then the data frame will include one row of the nested data, as well as each grouping variable as a column (with identical repeated content).

For example

nest_df %>% 
  sample_row()
#> row 5 is selected randomly
#> $data
#> # A tibble: 68 × 6
#>    bill_length_mm bill_depth_mm flipper_length_mm body_mass_g sex     year
#>             <dbl>         <dbl>             <int>       <int> <fct>  <int>
#>  1           46.5          17.9               192        3500 female  2007
#>  2           50            19.5               196        3900 male    2007
#>  3           51.3          19.2               193        3650 male    2007
#>  4           45.4          18.7               188        3525 female  2007
#>  5           52.7          19.8               197        3725 male    2007
#>  6           45.2          17.8               198        3950 female  2007
#>  7           46.1          18.2               178        3250 female  2007
#>  8           51.3          18.2               197        3750 male    2007
#>  9           46            18.9               195        4150 female  2007
#> 10           51.3          19.9               198        3700 male    2007
#> # … with 58 more rows
#> 
#> $island
#> [1] Dream
#> Levels: Biscoe Dream Torgersen
#> 
#> $species
#> [1] Chinstrap
#> Levels: Adelie Chinstrap Gentoo

nest_df %>% 
  sample_row(index = 3) %>% 
  head()
#> $data
#> # A tibble: 56 × 6
#>    bill_length_mm bill_depth_mm flipper_length_mm body_mass_g sex     year
#>             <dbl>         <dbl>             <int>       <int> <fct>  <int>
#>  1           39.5          16.7               178        3250 female  2007
#>  2           37.2          18.1               178        3900 male    2007
#>  3           39.5          17.8               188        3300 female  2007
#>  4           40.9          18.9               184        3900 male    2007
#>  5           36.4          17                 195        3325 female  2007
#>  6           39.2          21.1               196        4150 male    2007
#>  7           38.8          20                 190        3950 male    2007
#>  8           42.2          18.5               180        3550 female  2007
#>  9           37.6          19.3               181        3300 female  2007
#> 10           39.8          19.1               184        4650 male    2007
#> # … with 46 more rows
…
sample_data()

sample_data() returns one random or one particular data column (with index argument) from the nested data. The primary difference between sample_data() versus sample_row() is that the grouping variables are not returned - just the data. For example:

nest_df %>% 
  sample_data()
#> row 2 is selected randomly
#> # A tibble: 44 × 6
#>    bill_length_mm bill_depth_mm flipper_length_mm body_mass_g sex     year
#>             <dbl>         <dbl>             <int>       <int> <fct>  <int>
#>  1           37.8          18.3               174        3400 female  2007
#>  2           37.7          18.7               180        3600 male    2007
#>  3           35.9          19.2               189        3800 female  2007
#>  4           38.2          18.1               185        3950 male    2007
#>  5           38.8          17.2               180        3800 male    2007
#>  6           35.3          18.9               187        3800 female  2007
#>  7           40.6          18.6               183        3550 male    2007
#>  8           40.5          17.9               187        3200 female  2007
#>  9           37.9          18.6               172        3150 female  2007
#> 10           40.5          18.9               180        3950 male    2007
#> # … with 34 more rows

nest_df %>% 
  sample_data(index = 3)
#> # A tibble: 56 × 6
#>    bill_length_mm bill_depth_mm flipper_length_mm body_mass_g sex     year
#>             <dbl>         <dbl>             <int>       <int> <fct>  <int>
#>  1           39.5          16.7               178        3250 female  2007
#>  2           37.2          18.1               178        3900 male    2007
#>  3           39.5          17.8               188        3300 female  2007
#>  4           40.9          18.9               184        3900 male    2007
#>  5           36.4          17                 195        3325 female  2007
#>  6           39.2          21.1               196        4150 male    2007
#>  7           38.8          20                 190        3950 male    2007
#>  8           42.2          18.5               180        3550 female  2007
#>  9           37.6          19.3               181        3300 female  2007
#> 10           39.8          19.1               184        4650 male    2007
#> # … with 46 more rows
…
broadcast()

broadcast()

Generally, we will use the data we have sampled to conduct some operations. Once we’ve conducted those operations we just need to wrap them all in a function, then broadcast() them across the sets of data (i.e., all rows).

In other words, the sampling dataset is used to test the code you want to be applied for each row, such as figures, models, or transformations.

Let’s look at an example for plotting. First, we create our sample data.

samp <- nest_df %>% 
  sample_data(index = 3)

samp
#> # A tibble: 56 × 6
#>    bill_length_mm bill_depth_mm flipper_length_mm body_mass_g sex     year
#>             <dbl>         <dbl>             <int>       <int> <fct>  <int>
#>  1           39.5          16.7               178        3250 female  2007
#>  2           37.2          18.1               178        3900 male    2007
#>  3           39.5          17.8               188        3300 female  2007
#>  4           40.9          18.9               184        3900 male    2007
#>  5           36.4          17                 195        3325 female  2007
#>  6           39.2          21.1               196        4150 male    2007
#>  7           38.8          20                 190        3950 male    2007
#>  8           42.2          18.5               180        3550 female  2007
#>  9           37.6          19.3               181        3300 female  2007
#> 10           39.8          19.1               184        4650 male    2007
#> # … with 46 more rows
…
